{
    "info": {
        "_postman_id": "68f0f331-8d9b-42a7-9ecb-419a6721bb47",
        "name": "markets",
        "schema": "https://schema.getpostman.com/json/collection/v2.1.0/collection.json"
    },
    "item": [
        {
            "name": "marketzipcode78705",
            "id": "83f1d256-c912-49f1-8e6c-b61f0a8c8838",
            "protocolProfileBehavior": {
                "disableBodyPruning": true
            },
            "request": {
                "method": "GET",
                "header": [],
                "url": {
                    "raw": "http://search.ams.usda.gov/farmersmarkets/v1/data.svc/zipSearch?zip=78705",
                    "protocol": "http",
                    "host": [
                        "search",
                        "ams",
                        "usda",
                        "gov"
                    ],
                    "path": [
                        "farmersmarkets",
                        "v1",
                        "data.svc",
                        "zipSearch"
                    ],
                    "query": [
                        {
                            "key": "zip",
                            "value": "78705"
                        }
                    ]
                }
            },
            "response": []
        },
        {
            "name": "marketzipcode11224",
            "id": "6d68bef9-b6fd-4cb2-93e8-bc9fb141e371",
            "protocolProfileBehavior": {
                "disableBodyPruning": true
            },
            "request": {
                "method": "GET",
                "header": [],
                "url": {
                    "raw": "http://search.ams.usda.gov/farmersmarkets/v1/data.svc/zipSearch?zip=11224",
                    "protocol": "http",
                    "host": [
                        "search",
                        "ams",
                        "usda",
                        "gov"
                    ],
                    "path": [
                        "farmersmarkets",
                        "v1",
                        "data.svc",
                        "zipSearch"
                    ],
                    "query": [
                        {
                            "key": "zip",
                            "value": "11224"
                        }
                    ]
                }
            },
            "response": []
        },
        {
            "name": "market1021616",
            "id": "519ad042-587e-4159-96aa-c6aae21f05b8",
            "protocolProfileBehavior": {
                "disableBodyPruning": true
            },
            "request": {
                "method": "GET",
                "header": [],
                "url": {
                    "raw": "http://search.ams.usda.gov/farmersmarkets/v1/data.svc/mktDetail?id=1021616",
                    "protocol": "http",
                    "host": [
                        "search",
                        "ams",
                        "usda",
                        "gov"
                    ],
                    "path": [
                        "farmersmarkets",
                        "v1",
                        "data.svc",
                        "mktDetail"
                    ],
                    "query": [
                        {
                            "key": "id",
                            "value": "1021616"
                        }
                    ]
                }
            },
            "response": []
        },
        {
            "name": "market1021534",
            "id": "1741e079-2ca1-4811-a789-7058cb5e1d6c",
            "protocolProfileBehavior": {
                "disableBodyPruning": true
            },
            "request": {
                "method": "GET",
                "header": [],
                "url": {
                    "raw": "http://search.ams.usda.gov/farmersmarkets/v1/data.svc/mktDetail?id=1021534",
                    "protocol": "http",
                    "host": [
                        "search",
                        "ams",
                        "usda",
                        "gov"
                    ],
                    "path": [
                        "farmersmarkets",
                        "v1",
                        "data.svc",
                        "mktDetail"
                    ],
                    "query": [
                        {
                            "key": "id",
                            "value": "1021534"
                        }
                    ]
                }
            },
            "response": []
        },
        {
            "name": "market1016803",
            "id": "6708c47a-80fe-4964-b1bb-223d0ab2cbe5",
            "protocolProfileBehavior": {
                "disableBodyPruning": true
            },
            "request": {
                "method": "GET",
                "header": [],
                "url": {
                    "raw": "http://search.ams.usda.gov/farmersmarkets/v1/data.svc/mktDetail?id=1016803",
                    "protocol": "http",
                    "host": [
                        "search",
                        "ams",
                        "usda",
                        "gov"
                    ],
                    "path": [
                        "farmersmarkets",
                        "v1",
                        "data.svc",
                        "mktDetail"
                    ],
                    "query": [
                        {
                            "key": "id",
                            "value": "1016803"
                        }
                    ]
                }
            },
            "response": []
        }
    ]
}